<svg xmlns="http://www.w3.org/2000/svg" width="123.817" height="29.1" viewBox="0 0 123.817 29.1">
  <g id="Group_657" data-name="Group 657" transform="translate(-253.833 -154.1)">
    <path id="Path_16578" data-name="Path 16578" d="M62.58-10.98H58.62v4.86a9.148,9.148,0,0,0,.06,1.095,2.207,2.207,0,0,0,.27.855,1.364,1.364,0,0,0,.645.555,2.86,2.86,0,0,0,1.155.195,7.779,7.779,0,0,0,.945-.075,1.6,1.6,0,0,0,.885-.345V-.09a6.809,6.809,0,0,1-1.56.36,14.393,14.393,0,0,1-1.59.09,8.65,8.65,0,0,1-2.1-.24,4.79,4.79,0,0,1-1.68-.765A3.583,3.583,0,0,1,54.525-2.01a4.667,4.667,0,0,1-.4-2.04v-6.93H51.24v-3.6h2.88V-18.9h4.5v4.32h3.96ZM74.01-1.83h-.06A4.232,4.232,0,0,1,71.955-.15,6.858,6.858,0,0,1,69.33.36,6.768,6.768,0,0,1,67.365.075,4.959,4.959,0,0,1,65.7-.78a4.129,4.129,0,0,1-1.14-1.41,4.307,4.307,0,0,1-.42-1.95,4.471,4.471,0,0,1,.465-2.13,4.161,4.161,0,0,1,1.26-1.44A6.257,6.257,0,0,1,67.68-8.6a13.249,13.249,0,0,1,2.115-.465,20.2,20.2,0,0,1,2.19-.18q1.1-.03,2.025-.03a2.34,2.34,0,0,0-.855-1.905,3.083,3.083,0,0,0-2.025-.7,4.4,4.4,0,0,0-2.025.465A5.532,5.532,0,0,0,67.47-10.14l-2.4-2.46a8.258,8.258,0,0,1,2.94-1.755,10.507,10.507,0,0,1,3.48-.585,9.1,9.1,0,0,1,3.255.495,4.733,4.733,0,0,1,2.04,1.455,5.607,5.607,0,0,1,1.065,2.355,15.455,15.455,0,0,1,.3,3.225V0H74.01ZM72.9-6.39q-.51,0-1.275.045a6.461,6.461,0,0,0-1.47.255,3.271,3.271,0,0,0-1.2.63,1.451,1.451,0,0,0-.5,1.17,1.287,1.287,0,0,0,.69,1.2,2.886,2.886,0,0,0,1.44.39,4.516,4.516,0,0,0,1.275-.18,3.8,3.8,0,0,0,1.1-.51,2.465,2.465,0,0,0,.765-.84,2.421,2.421,0,0,0,.285-1.2v-.96Zm8.07-8.19h4.32v1.98h.06a3.647,3.647,0,0,1,.6-.84,4.364,4.364,0,0,1,.93-.75,5.317,5.317,0,0,1,1.23-.54,5.13,5.13,0,0,1,1.5-.21,6.2,6.2,0,0,1,2.76.525A3.991,3.991,0,0,1,94-12.96a5.885,5.885,0,0,1,.795,2.19,16.632,16.632,0,0,1,.21,2.73V0h-4.5V-7.14q0-.63-.045-1.305a4.117,4.117,0,0,0-.27-1.245,2.149,2.149,0,0,0-.69-.93,2.144,2.144,0,0,0-1.335-.36,2.778,2.778,0,0,0-1.41.315,2.147,2.147,0,0,0-.825.84A3.434,3.434,0,0,0,85.56-8.64a10.211,10.211,0,0,0-.09,1.38V0h-4.5Zm27.09,4.71a2.521,2.521,0,0,0-.93-.8,2.734,2.734,0,0,0-1.29-.315,3.44,3.44,0,0,0-2.655,1.02,3.772,3.772,0,0,0-.945,2.67,3.772,3.772,0,0,0,.945,2.67A3.44,3.44,0,0,0,105.84-3.6a2.426,2.426,0,0,0,1.29-.33,3.934,3.934,0,0,0,.93-.78l2.97,3.12a5.738,5.738,0,0,1-2.475,1.515A9.3,9.3,0,0,1,105.84.36a9.19,9.19,0,0,1-3.165-.54,7.618,7.618,0,0,1-2.58-1.545A7.251,7.251,0,0,1,98.37-4.14a7.638,7.638,0,0,1-.63-3.15,7.638,7.638,0,0,1,.63-3.15,7.251,7.251,0,0,1,1.725-2.415,7.618,7.618,0,0,1,2.58-1.545,9.19,9.19,0,0,1,3.165-.54,9.3,9.3,0,0,1,2.715.435,5.738,5.738,0,0,1,2.475,1.515ZM121.05,2.37q-.45,1.17-.87,2.07a4.968,4.968,0,0,1-1.065,1.515,4.149,4.149,0,0,1-1.635.93,8.84,8.84,0,0,1-2.61.315,10.555,10.555,0,0,1-3.36-.54l.6-3.69a5.152,5.152,0,0,0,2.1.45,3.849,3.849,0,0,0,1.23-.165,2.042,2.042,0,0,0,.8-.48,2.66,2.66,0,0,0,.525-.765q.21-.45.45-1.05l.33-.84-6.39-14.7h4.86l3.75,9.63h.06l3.21-9.63h4.62Z" transform="translate(250 176)" fill="#fff"/>
    <path id="Path_16579" data-name="Path 16579" d="M262.878,183.368c-2.747,0-4.967,1.362-6.941,3.287.385.5.76.993,1.124,1.474.577.761,1.194,1.579,1.816,2.349,1.33-1.389,2.65-2.325,4-2.325a3.786,3.786,0,0,1,0,7.572c-2.468,0-4.837-3.123-7.345-6.429a41.934,41.934,0,0,0-5.982-6.8,13.7,13.7,0,0,0-9.109-3.6,13.05,13.05,0,1,0,0,26.1,13.7,13.7,0,0,0,9.109-3.6,30.164,30.164,0,0,0,3.824-4.023c-1.074-1.206-2.08-2.528-3.066-3.829a28.987,28.987,0,0,1-3.857,4.208,9.005,9.005,0,0,1-6.01,2.462,8.265,8.265,0,0,1,0-16.531,9.014,9.014,0,0,1,6.01,2.468,38.431,38.431,0,0,1,5.269,6.047c3.1,4.091,6.312,8.32,11.156,8.32a8.571,8.571,0,0,0,0-17.141Z" transform="translate(26.44 -24.789)" fill="#fff"/>
  </g>
</svg>
